country,State Name,City Name,City Zip Code,Airport Name,airport Code
india,Delhi,Delhi,A101,Mercer County Airport,C00
india,Hariyana,guragon,A102,St Louis Regional Airport,KALN
india,Hariyana,guragon,A103,Greater Beardstown Airport,K06
india,Hariyana,guragon,A104,Scott Air Force Base/MidAmerica Airport,KBLV
india,Hariyana,guragon,A105,Benton Municipal Airport,H96
india,Hariyana,guragon,A106,Central Illinois Regional Airport at Bloomington-Normal,KBMI
usa,Hariyana,guragon,A107,Bolingbrook's Clow International Airport,1C5
usa,Hariyana,guragon,A108,St Louis Downtown Airport,KCPS
usa,Hariyana,guragon,A109,Cairo Regional Airport,KCIR
usa,Hariyana,guragon,A110,Ingersoll Airport,KCTK
usa,Hariyana,guragon,A111,Southern Illinois Airport,KMDH
usa,Hariyana,guragon,A112,Carmi Municipal Airport,KCUL
usa,Hariyana,guragon,A113,Casey Municipal Airport,1H8
usa,Hariyana,guragon,A114,Centralia Municipal Airport,KENL
