Country,Country Code,State/Province,State/Province Abb,County,City,Postal Code
United States,US,New Jersey,NJ,Atlantic County,Absecon,08201
United States,US,New Jersey,NJ,Atlantic County,Absecon,08205
United States,US,New Jersey,NJ,Atlantic County,Atlantic City,08401
United States,US,New Jersey,NJ,Atlantic County,Brigantine,08203
United States,US,New Jersey,NJ,Atlantic County,Buena,08310
United States,US,New Jersey,NJ,Atlantic County,Dorothy,08317
United States,US,New Jersey,NJ,Atlantic County,Egg Harbor City,08215
United States,US,New Jersey,NJ,Atlantic County,Egg Harbor Township,08234
United States,US,New Jersey,NJ,Atlantic County,Estell Manor,08319
United States,US,New Jersey,NJ,Atlantic County,Hammonton,08037
United States,US,New Jersey,NJ,Atlantic County,Landisville,08326
United States,US,New Jersey,NJ,Atlantic County,Linwood,08221
United States,US,New Jersey,NJ,Atlantic County,Longport,08403
United States,US,New Jersey,NJ,Atlantic County,Margate City,08402
United States,US,New Jersey,NJ,Atlantic County,Mays Landing,08330
United States,US,New Jersey,NJ,Atlantic County,Milmay,08340
United States,US,New Jersey,NJ,Atlantic County,Minotola,08341
United States,US,New Jersey,NJ,Atlantic County,Newtonville,08346
United States,US,New Jersey,NJ,Atlantic County,Northfield,08225
United States,US,New Jersey,NJ,Atlantic County,Pleasantville,08232
United States,US,New Jersey,NJ,Atlantic County,Port Republic,08241
United States,US,New Jersey,NJ,Atlantic County,Richland,08350
United States,US,New Jersey,NJ,Atlantic County,Somers Point,08244
United States,US,New Jersey,NJ,Atlantic County,Ventnor City,08406
United States,US,New Jersey,NJ,Bergen County,Allendale,07401
United States,US,New Jersey,NJ,Bergen County,Bergenfield,07621
United States,US,New Jersey,NJ,Bergen County,Bogota,07603
United States,US,New Jersey,NJ,Bergen County,Carlstadt,07072
United States,US,New Jersey,NJ,Bergen County,Cliffside Park,07010
United States,US,New Jersey,NJ,Bergen County,Closter,07624
United States,US,New Jersey,NJ,Bergen County,Cresskill,07626
United States,US,New Jersey,NJ,Bergen County,Demarest,07627
United States,US,New Jersey,NJ,Bergen County,Dumont,07628
United States,US,New Jersey,NJ,Bergen County,East Rutherford,07073
United States,US,New Jersey,NJ,Bergen County,Edgewater,07020
United States,US,New Jersey,NJ,Bergen County,Elmwood Park,07407
United States,US,New Jersey,NJ,Bergen County,Emerson,07630
United States,US,New Jersey,NJ,Bergen County,Englewood,07631
United States,US,New Jersey,NJ,Bergen County,Englewood Cliffs,07632
United States,US,New Jersey,NJ,Bergen County,Fair Lawn,07410
United States,US,New Jersey,NJ,Bergen County,Fairview,07022
United States,US,New Jersey,NJ,Bergen County,Fort Lee,07024
United States,US,New Jersey,NJ,Bergen County,Franklin Lakes,07417
United States,US,New Jersey,NJ,Bergen County,Garfield,07026
United States,US,New Jersey,NJ,Bergen County,Glen Rock,07452
United States,US,New Jersey,NJ,Bergen County,Hackensack,07601
United States,US,New Jersey,NJ,Bergen County,Harrington Park,07640
United States,US,New Jersey,NJ,Bergen County,Hasbrouck Heights,07604
United States,US,New Jersey,NJ,Bergen County,Haworth,07641
United States,US,New Jersey,NJ,Bergen County,Hillsdale,07642
United States,US,New Jersey,NJ,Bergen County,Ho Ho Kus,07423
United States,US,New Jersey,NJ,Bergen County,Leonia,07605
United States,US,New Jersey,NJ,Bergen County,Little Ferry,07643
United States,US,New Jersey,NJ,Bergen County,Lodi,07644
United States,US,New Jersey,NJ,Bergen County,Lyndhurst,07071
United States,US,New Jersey,NJ,Bergen County,Mahwah,07430
United States,US,New Jersey,NJ,Bergen County,Mahwah,07495
United States,US,New Jersey,NJ,Bergen County,Maywood,07607
United States,US,New Jersey,NJ,Bergen County,Midland Park,07432
United States,US,New Jersey,NJ,Bergen County,Montvale,07645
United States,US,New Jersey,NJ,Bergen County,Moonachie,07074
United States,US,New Jersey,NJ,Bergen County,New Milford,07646
United States,US,New Jersey,NJ,Bergen County,North Arlington,07031
United States,US,New Jersey,NJ,Bergen County,Northvale,07647
United States,US,New Jersey,NJ,Bergen County,Norwood,07648
United States,US,New Jersey,NJ,Bergen County,Oakland,07436
United States,US,New Jersey,NJ,Bergen County,Oradell,07649
United States,US,New Jersey,NJ,Bergen County,Palisades Park,07650
United States,US,New Jersey,NJ,Bergen County,Paramus,07652
United States,US,New Jersey,NJ,Bergen County,Park Ridge,07656
United States,US,New Jersey,NJ,Bergen County,Ramsey,07446
United States,US,New Jersey,NJ,Bergen County,Ridgefield,07657
United States,US,New Jersey,NJ,Bergen County,Ridgefield Park,07660
United States,US,New Jersey,NJ,Bergen County,Ridgewood,07450
United States,US,New Jersey,NJ,Bergen County,River Edge,07661
United States,US,New Jersey,NJ,Bergen County,Rochelle Park,07662
United States,US,New Jersey,NJ,Bergen County,Rutherford,07070
United States,US,New Jersey,NJ,Bergen County,Saddle Brook,07663
United States,US,New Jersey,NJ,Bergen County,Saddle River,07458
United States,US,New Jersey,NJ,Bergen County,South Hackensack,07606
United States,US,New Jersey,NJ,Bergen County,Teaneck,07666
United States,US,New Jersey,NJ,Bergen County,Tenafly,07670
United States,US,New Jersey,NJ,Bergen County,Teterboro,07608
United States,US,New Jersey,NJ,Bergen County,Township Of Washington,07676
United States,US,New Jersey,NJ,Bergen County,Waldwick,07463
United States,US,New Jersey,NJ,Bergen County,Wallington,07057
United States,US,New Jersey,NJ,Bergen County,Westwood,07675
United States,US,New Jersey,NJ,Bergen County,Wood Ridge,07075
United States,US,New Jersey,NJ,Bergen County,Woodcliff Lake,07677
United States,US,New Jersey,NJ,Bergen County,Wyckoff,07481
United States,US,New Jersey,NJ,Burlington County,Beverly,08010
United States,US,New Jersey,NJ,Burlington County,Bordentown,08505
United States,US,New Jersey,NJ,Burlington County,Browns Mills,08015
United States,US,New Jersey,NJ,Burlington County,Burlington,08016
United States,US,New Jersey,NJ,Burlington County,Chatsworth,08019
United States,US,New Jersey,NJ,Burlington County,Chesterfield,08515
United States,US,New Jersey,NJ,Burlington County,Columbus,08022
United States,US,New Jersey,NJ,Burlington County,Cookstown,08511
United States,US,New Jersey,NJ,Burlington County,Florence,08518
United States,US,New Jersey,NJ,Burlington County,Fort Dix,08640
United States,US,New Jersey,NJ,Burlington County,Hainesport,08036
United States,US,New Jersey,NJ,Burlington County,Jobstown,08041
United States,US,New Jersey,NJ,Burlington County,Lumberton,08048
United States,US,New Jersey,NJ,Burlington County,Maple Shade,08052
United States,US,New Jersey,NJ,Burlington County,Marlton,08053
United States,US,New Jersey,NJ,Burlington County,Medford,08055
United States,US,New Jersey,NJ,Burlington County,Moorestown,08057
United States,US,New Jersey,NJ,Burlington County,Mount Holly,08060
United States,US,New Jersey,NJ,Burlington County,Mount Laurel,08054
United States,US,New Jersey,NJ,Burlington County,Palmyra,08065
United States,US,New Jersey,NJ,Burlington County,Pemberton,08068
United States,US,New Jersey,NJ,Burlington County,Riverside,08075
United States,US,New Jersey,NJ,Burlington County,Riverton,08077
United States,US,New Jersey,NJ,Burlington County,Roebling,08554
United States,US,New Jersey,NJ,Burlington County,Trenton,08641
United States,US,New Jersey,NJ,Burlington County,Vincentown,08088
United States,US,New Jersey,NJ,Burlington County,Willingboro,08046
United States,US,New Jersey,NJ,Burlington County,Wrightstown,08562
United States,US,New Jersey,NJ,Camden County,Atco,08004
United States,US,New Jersey,NJ,Camden County,Audubon,08106
United States,US,New Jersey,NJ,Camden County,Barrington,08007
United States,US,New Jersey,NJ,Camden County,Bellmawr,08031
United States,US,New Jersey,NJ,Camden County,Berlin,08009
United States,US,New Jersey,NJ,Camden County,Blackwood,08012
United States,US,New Jersey,NJ,Camden County,Camden,08102
United States,US,New Jersey,NJ,Camden County,Camden,08103
United States,US,New Jersey,NJ,Camden County,Camden,08104
United States,US,New Jersey,NJ,Camden County,Camden,08105
United States,US,New Jersey,NJ,Camden County,Cherry Hill,08002
United States,US,New Jersey,NJ,Camden County,Cherry Hill,08003
United States,US,New Jersey,NJ,Camden County,Cherry Hill,08034
United States,US,New Jersey,NJ,Camden County,Clementon,08021
United States,US,New Jersey,NJ,Camden County,Collingswood,08108
United States,US,New Jersey,NJ,Camden County,Gibbsboro,08026
United States,US,New Jersey,NJ,Camden County,Glendora,08029
United States,US,New Jersey,NJ,Camden County,Gloucester City,08030
United States,US,New Jersey,NJ,Camden County,Haddon Heights,08035
United States,US,New Jersey,NJ,Camden County,Haddonfield,08033
United States,US,New Jersey,NJ,Camden County,Lawnside,08045
United States,US,New Jersey,NJ,Camden County,Magnolia,08049
United States,US,New Jersey,NJ,Camden County,Merchantville,08109
United States,US,New Jersey,NJ,Camden County,Mount Ephraim,08059
United States,US,New Jersey,NJ,Camden County,Oaklyn,08107
United States,US,New Jersey,NJ,Camden County,Pennsauken,08110
United States,US,New Jersey,NJ,Camden County,Runnemede,08078
United States,US,New Jersey,NJ,Camden County,Sicklerville,08081
United States,US,New Jersey,NJ,Camden County,Somerdale,08083
United States,US,New Jersey,NJ,Camden County,Stratford,08084
United States,US,New Jersey,NJ,Camden County,Voorhees,08043
United States,US,New Jersey,NJ,Camden County,Waterford Works,08089
United States,US,New Jersey,NJ,Camden County,West Berlin,08091
United States,US,New Jersey,NJ,Cape May County,Avalon,08202
United States,US,New Jersey,NJ,Cape May County,Cape May,08204
United States,US,New Jersey,NJ,Cape May County,Cape May Court House,08210
United States,US,New Jersey,NJ,Cape May County,Marmora,08223
United States,US,New Jersey,NJ,Cape May County,Ocean City,08226
United States,US,New Jersey,NJ,Cape May County,Ocean View,08230
United States,US,New Jersey,NJ,Cape May County,Rio Grande,08242
United States,US,New Jersey,NJ,Cape May County,Sea Isle City,08243
United States,US,New Jersey,NJ,Cape May County,Stone Harbor,08247
United States,US,New Jersey,NJ,Cape May County,Villas,08251
United States,US,New Jersey,NJ,Cape May County,Wildwood,08260
United States,US,New Jersey,NJ,Cape May County,Woodbine,08270
United States,US,New Jersey,NJ,Cumberland County,Bridgeton,08302
United States,US,New Jersey,NJ,Cumberland County,Cedarville,08311
United States,US,New Jersey,NJ,Cumberland County,Delmont,08314
United States,US,New Jersey,NJ,Cumberland County,Greenwich,08323
United States,US,New Jersey,NJ,Cumberland County,Heislerville,08324
United States,US,New Jersey,NJ,Cumberland County,Leesburg,08327
United States,US,New Jersey,NJ,Cumberland County,Millville,08332
United States,US,New Jersey,NJ,Cumberland County,Newport,08345
United States,US,New Jersey,NJ,Cumberland County,Port Elizabeth,08348
United States,US,New Jersey,NJ,Cumberland County,Port Norris,08349
United States,US,New Jersey,NJ,Cumberland County,Vineland,08360
United States,US,New Jersey,NJ,Cumberland County,Vineland,08361
United States,US,New Jersey,NJ,Essex County,Belleville,07109
United States,US,New Jersey,NJ,Essex County,Bloomfield,07003
United States,US,New Jersey,NJ,Essex County,Caldwell,07006
United States,US,New Jersey,NJ,Essex County,Cedar Grove,07009
United States,US,New Jersey,NJ,Essex County,East Orange,07017
United States,US,New Jersey,NJ,Essex County,East Orange,07018
United States,US,New Jersey,NJ,Essex County,Essex Fells,07021
United States,US,New Jersey,NJ,Essex County,Fairfield,07004
United States,US,New Jersey,NJ,Essex County,Glen Ridge,07028
United States,US,New Jersey,NJ,Essex County,Irvington,07111
United States,US,New Jersey,NJ,Essex County,Livingston,07039
United States,US,New Jersey,NJ,Essex County,Maplewood,07040
United States,US,New Jersey,NJ,Essex County,Millburn,07041
United States,US,New Jersey,NJ,Essex County,Montclair,07042
United States,US,New Jersey,NJ,Essex County,Montclair,07043
United States,US,New Jersey,NJ,Essex County,Newark,07102
United States,US,New Jersey,NJ,Essex County,Newark,07103
United States,US,New Jersey,NJ,Essex County,Newark,07104
United States,US,New Jersey,NJ,Essex County,Newark,07105
United States,US,New Jersey,NJ,Essex County,Newark,07106
United States,US,New Jersey,NJ,Essex County,Newark,07107
United States,US,New Jersey,NJ,Essex County,Newark,07108
United States,US,New Jersey,NJ,Essex County,Newark,07112
United States,US,New Jersey,NJ,Essex County,Newark,07114
United States,US,New Jersey,NJ,Essex County,Nutley,07110
United States,US,New Jersey,NJ,Essex County,Orange,07050
United States,US,New Jersey,NJ,Essex County,Roseland,07068
United States,US,New Jersey,NJ,Essex County,Short Hills,07078
United States,US,New Jersey,NJ,Essex County,South Orange,07079
United States,US,New Jersey,NJ,Essex County,Verona,07044
United States,US,New Jersey,NJ,Essex County,West Orange,07052
United States,US,New Jersey,NJ,Gloucester County,Bridgeport,08014
United States,US,New Jersey,NJ,Gloucester County,Clarksboro,08020
United States,US,New Jersey,NJ,Gloucester County,Clayton,08312
United States,US,New Jersey,NJ,Gloucester County,Franklinville,08322
United States,US,New Jersey,NJ,Gloucester County,Gibbstown,08027
United States,US,New Jersey,NJ,Gloucester County,Glassboro,08028
United States,US,New Jersey,NJ,Gloucester County,Grenloch,08032
United States,US,New Jersey,NJ,Gloucester County,Malaga,08328
United States,US,New Jersey,NJ,Gloucester County,Mantua,08051
United States,US,New Jersey,NJ,Gloucester County,Mickleton,08056
United States,US,New Jersey,NJ,Gloucester County,Monroeville,08343
United States,US,New Jersey,NJ,Gloucester County,Mount Royal,08061
United States,US,New Jersey,NJ,Gloucester County,Mullica Hill,08062
United States,US,New Jersey,NJ,Gloucester County,National Park,08063
United States,US,New Jersey,NJ,Gloucester County,Newfield,08344
United States,US,New Jersey,NJ,Gloucester County,Paulsboro,08066
United States,US,New Jersey,NJ,Gloucester County,Pitman,08071
United States,US,New Jersey,NJ,Gloucester County,Sewell,08080
United States,US,New Jersey,NJ,Gloucester County,Swedesboro,08085
United States,US,New Jersey,NJ,Gloucester County,Thorofare,08086
United States,US,New Jersey,NJ,Gloucester County,Wenonah,08090
United States,US,New Jersey,NJ,Gloucester County,West Deptford,08096
United States,US,New Jersey,NJ,Gloucester County,Westville,08093
United States,US,New Jersey,NJ,Gloucester County,Williamstown,08094
United States,US,New Jersey,NJ,Gloucester County,Woodbury Heights,08097
United States,US,New Jersey,NJ,Hudson County,Bayonne,07002
United States,US,New Jersey,NJ,Hudson County,Harrison,07029
United States,US,New Jersey,NJ,Hudson County,Hoboken,07030
United States,US,New Jersey,NJ,Hudson County,Jersey City,07302
United States,US,New Jersey,NJ,Hudson County,Jersey City,07304
United States,US,New Jersey,NJ,Hudson County,Jersey City,07305
United States,US,New Jersey,NJ,Hudson County,Jersey City,07306
United States,US,New Jersey,NJ,Hudson County,Jersey City,07307
United States,US,New Jersey,NJ,Hudson County,Jersey City,07309
United States,US,New Jersey,NJ,Hudson County,Jersey City,07310
United States,US,New Jersey,NJ,Hudson County,Jersey City,07311
United States,US,New Jersey,NJ,Hudson County,Kearny,07032
United States,US,New Jersey,NJ,Hudson County,North Bergen,07047
United States,US,New Jersey,NJ,Hudson County,Secaucus,07094
United States,US,New Jersey,NJ,Hudson County,Union City,07087
United States,US,New Jersey,NJ,Hudson County,Weehawken,07086
United States,US,New Jersey,NJ,Hudson County,West New York,07093
United States,US,New Jersey,NJ,Hunterdon County,Annandale,08801
United States,US,New Jersey,NJ,Hunterdon County,Asbury,08802
United States,US,New Jersey,NJ,Hunterdon County,Bloomsbury,08804
United States,US,New Jersey,NJ,Hunterdon County,Califon,07830
United States,US,New Jersey,NJ,Hunterdon County,Clinton,08809
United States,US,New Jersey,NJ,Hunterdon County,Flemington,08822
United States,US,New Jersey,NJ,Hunterdon County,Frenchtown,08825
United States,US,New Jersey,NJ,Hunterdon County,Glen Gardner,08826
United States,US,New Jersey,NJ,Hunterdon County,Hampton,08827
United States,US,New Jersey,NJ,Hunterdon County,High Bridge,08829
United States,US,New Jersey,NJ,Hunterdon County,Lambertville,08530
United States,US,New Jersey,NJ,Hunterdon County,Lebanon,08833
United States,US,New Jersey,NJ,Hunterdon County,Milford,08848
United States,US,New Jersey,NJ,Hunterdon County,Pittstown,08867
United States,US,New Jersey,NJ,Hunterdon County,Port Murray,07865
United States,US,New Jersey,NJ,Hunterdon County,Ringoes,08551
United States,US,New Jersey,NJ,Hunterdon County,Rosemont,08556
United States,US,New Jersey,NJ,Hunterdon County,Stockton,08559
United States,US,New Jersey,NJ,Hunterdon County,Three Bridges,08887
United States,US,New Jersey,NJ,Hunterdon County,Whitehouse Station,08889
United States,US,New Jersey,NJ,Mercer County,Hightstown,08520
United States,US,New Jersey,NJ,Mercer County,Hopewell,08525
United States,US,New Jersey,NJ,Mercer County,Lawrence Township,08648
United States,US,New Jersey,NJ,Mercer County,Pennington,08534
United States,US,New Jersey,NJ,Mercer County,Princeton,08540
United States,US,New Jersey,NJ,Mercer County,Princeton,08542
United States,US,New Jersey,NJ,Mercer County,Princeton Junction,08550
United States,US,New Jersey,NJ,Mercer County,Titusville,08560
United States,US,New Jersey,NJ,Mercer County,Trenton,08608
United States,US,New Jersey,NJ,Mercer County,Trenton,08609
United States,US,New Jersey,NJ,Mercer County,Trenton,08610
United States,US,New Jersey,NJ,Mercer County,Trenton,08611
United States,US,New Jersey,NJ,Mercer County,Trenton,08618
United States,US,New Jersey,NJ,Mercer County,Trenton,08619
United States,US,New Jersey,NJ,Mercer County,Trenton,08620
United States,US,New Jersey,NJ,Mercer County,Trenton,08628
United States,US,New Jersey,NJ,Mercer County,Trenton,08629
United States,US,New Jersey,NJ,Mercer County,Trenton,08638
United States,US,New Jersey,NJ,Mercer County,Trenton,08690
United States,US,New Jersey,NJ,Mercer County,Trenton,08691
United States,US,New Jersey,NJ,Middlesex County,Avenel,07001
United States,US,New Jersey,NJ,Middlesex County,Carteret,07008
United States,US,New Jersey,NJ,Middlesex County,Colonia,07067
United States,US,New Jersey,NJ,Middlesex County,Cranbury,08512
United States,US,New Jersey,NJ,Middlesex County,Dayton,08810
United States,US,New Jersey,NJ,Middlesex County,East Brunswick,08816
United States,US,New Jersey,NJ,Middlesex County,Edison,08817
United States,US,New Jersey,NJ,Middlesex County,Edison,08820
United States,US,New Jersey,NJ,Middlesex County,Edison,08837
United States,US,New Jersey,NJ,Middlesex County,Edison,08899
United States,US,New Jersey,NJ,Middlesex County,Fords,08863
United States,US,New Jersey,NJ,Middlesex County,Helmetta,08828
United States,US,New Jersey,NJ,Middlesex County,Highland Park,08904
United States,US,New Jersey,NJ,Middlesex County,Iselin,08830
United States,US,New Jersey,NJ,Middlesex County,Keasbey,08832
United States,US,New Jersey,NJ,Middlesex County,Kendall Park,08824
United States,US,New Jersey,NJ,Middlesex County,Metuchen,08840
United States,US,New Jersey,NJ,Middlesex County,Middlesex,08846
United States,US,New Jersey,NJ,Middlesex County,Milltown,08850
United States,US,New Jersey,NJ,Middlesex County,Monmouth Junction,08852
United States,US,New Jersey,NJ,Middlesex County,Monroe Township,08831
United States,US,New Jersey,NJ,Middlesex County,New Brunswick,08901
United States,US,New Jersey,NJ,Middlesex County,North Brunswick,08902
United States,US,New Jersey,NJ,Middlesex County,Old Bridge,08857
United States,US,New Jersey,NJ,Middlesex County,Parlin,08859
United States,US,New Jersey,NJ,Middlesex County,Perth Amboy,08861
United States,US,New Jersey,NJ,Middlesex County,Piscataway,08854
United States,US,New Jersey,NJ,Middlesex County,Plainsboro,08536
United States,US,New Jersey,NJ,Middlesex County,Port Reading,07064
United States,US,New Jersey,NJ,Middlesex County,Sayreville,08872
United States,US,New Jersey,NJ,Middlesex County,Sewaren,07077
United States,US,New Jersey,NJ,Middlesex County,South Amboy,08879
United States,US,New Jersey,NJ,Middlesex County,South Plainfield,07080
United States,US,New Jersey,NJ,Middlesex County,South River,08882
United States,US,New Jersey,NJ,Middlesex County,Spotswood,08884
United States,US,New Jersey,NJ,Middlesex County,Woodbridge,07095
United States,US,New Jersey,NJ,Monmouth County,Allenhurst,07711
United States,US,New Jersey,NJ,Monmouth County,Allentown,08501
United States,US,New Jersey,NJ,Monmouth County,Asbury Park,07712
United States,US,New Jersey,NJ,Monmouth County,Atlantic Highlands,07716
United States,US,New Jersey,NJ,Monmouth County,Avon By The Sea,07717
United States,US,New Jersey,NJ,Monmouth County,Belford,07718
United States,US,New Jersey,NJ,Monmouth County,Belmar,07719
United States,US,New Jersey,NJ,Monmouth County,Bradley Beach,07720
United States,US,New Jersey,NJ,Monmouth County,Brielle,08730
United States,US,New Jersey,NJ,Monmouth County,Cliffwood,07721
United States,US,New Jersey,NJ,Monmouth County,Colts Neck,07722
United States,US,New Jersey,NJ,Monmouth County,Cream Ridge,08514
United States,US,New Jersey,NJ,Monmouth County,Deal,07723
United States,US,New Jersey,NJ,Monmouth County,Eatontown,07724
United States,US,New Jersey,NJ,Monmouth County,Eatontown,07799
United States,US,New Jersey,NJ,Monmouth County,Englishtown,07726
United States,US,New Jersey,NJ,Monmouth County,Fair Haven,07704
United States,US,New Jersey,NJ,Monmouth County,Farmingdale,07727
United States,US,New Jersey,NJ,Monmouth County,Fort Monmouth,07703
United States,US,New Jersey,NJ,Monmouth County,Freehold,07728
United States,US,New Jersey,NJ,Monmouth County,Hazlet,07730
United States,US,New Jersey,NJ,Monmouth County,Highlands,07732
United States,US,New Jersey,NJ,Monmouth County,Holmdel,07733
United States,US,New Jersey,NJ,Monmouth County,Howell,07731
United States,US,New Jersey,NJ,Monmouth County,Keansburg,07734
United States,US,New Jersey,NJ,Monmouth County,Keyport,07735
United States,US,New Jersey,NJ,Monmouth County,Leonardo,07737
United States,US,New Jersey,NJ,Monmouth County,Lincroft,07738
United States,US,New Jersey,NJ,Monmouth County,Little Silver,07739
United States,US,New Jersey,NJ,Monmouth County,Long Branch,07740
United States,US,New Jersey,NJ,Monmouth County,Manasquan,08736
United States,US,New Jersey,NJ,Monmouth County,Marlboro,07746
United States,US,New Jersey,NJ,Monmouth County,Matawan,07747
United States,US,New Jersey,NJ,Monmouth County,Middletown,07748
United States,US,New Jersey,NJ,Monmouth County,Millstone Township,08510
United States,US,New Jersey,NJ,Monmouth County,Millstone Township,08535
United States,US,New Jersey,NJ,Monmouth County,Monmouth Beach,07750
United States,US,New Jersey,NJ,Monmouth County,Morganville,07751
United States,US,New Jersey,NJ,Monmouth County,Neptune,07753
United States,US,New Jersey,NJ,Monmouth County,Oakhurst,07755
United States,US,New Jersey,NJ,Monmouth County,Ocean Grove,07756
United States,US,New Jersey,NJ,Monmouth County,Oceanport,07757
United States,US,New Jersey,NJ,Monmouth County,Port Monmouth,07758
United States,US,New Jersey,NJ,Monmouth County,Red Bank,07701
United States,US,New Jersey,NJ,Monmouth County,Rumson,07760
United States,US,New Jersey,NJ,Monmouth County,Sea Girt,08750
United States,US,New Jersey,NJ,Monmouth County,Shrewsbury,07702
United States,US,New Jersey,NJ,Monmouth County,Spring Lake,07762
United States,US,New Jersey,NJ,Monmouth County,West Long Branch,07764
United States,US,New Jersey,NJ,Morris County,Boonton,07005
United States,US,New Jersey,NJ,Morris County,Budd Lake,07828
United States,US,New Jersey,NJ,Morris County,Butler,07405
United States,US,New Jersey,NJ,Morris County,Cedar Knolls,07927
United States,US,New Jersey,NJ,Morris County,Chatham,07928
United States,US,New Jersey,NJ,Morris County,Chester,07930
United States,US,New Jersey,NJ,Morris County,Denville,07834
United States,US,New Jersey,NJ,Morris County,Dover,07801
United States,US,New Jersey,NJ,Morris County,East Hanover,07936
United States,US,New Jersey,NJ,Morris County,Flanders,07836
United States,US,New Jersey,NJ,Morris County,Florham Park,07932
United States,US,New Jersey,NJ,Morris County,Gillette,07933
United States,US,New Jersey,NJ,Morris County,Green Village,07935
United States,US,New Jersey,NJ,Morris County,Kenvil,07847
United States,US,New Jersey,NJ,Morris County,Lake Hiawatha,07034
United States,US,New Jersey,NJ,Morris County,Lake Hopatcong,07849
United States,US,New Jersey,NJ,Morris County,Landing,07850
United States,US,New Jersey,NJ,Morris County,Ledgewood,07852
United States,US,New Jersey,NJ,Morris County,Lincoln Park,07035
United States,US,New Jersey,NJ,Morris County,Long Valley,07853
United States,US,New Jersey,NJ,Morris County,Madison,07940
United States,US,New Jersey,NJ,Morris County,Mendham,07945
United States,US,New Jersey,NJ,Morris County,Millington,07946
United States,US,New Jersey,NJ,Morris County,Mine Hill,07803
United States,US,New Jersey,NJ,Morris County,Montville,07045
United States,US,New Jersey,NJ,Morris County,Morris Plains,07950
United States,US,New Jersey,NJ,Morris County,Morristown,07960
United States,US,New Jersey,NJ,Morris County,Mount Arlington,07856
United States,US,New Jersey,NJ,Morris County,Mountain Lakes,07046
United States,US,New Jersey,NJ,Morris County,Netcong,07857
United States,US,New Jersey,NJ,Morris County,New Vernon,07976
United States,US,New Jersey,NJ,Morris County,Newfoundland,07435
United States,US,New Jersey,NJ,Morris County,Oak Ridge,07438
United States,US,New Jersey,NJ,Morris County,Parsippany,07054
United States,US,New Jersey,NJ,Morris County,Pequannock,07440
United States,US,New Jersey,NJ,Morris County,Picatinny Arsenal,07806
United States,US,New Jersey,NJ,Morris County,Pine Brook,07058
United States,US,New Jersey,NJ,Morris County,Pompton Plains,07444
United States,US,New Jersey,NJ,Morris County,Randolph,07869
United States,US,New Jersey,NJ,Morris County,Riverdale,07457
United States,US,New Jersey,NJ,Morris County,Rockaway,07866
United States,US,New Jersey,NJ,Morris County,Stirling,07980
United States,US,New Jersey,NJ,Morris County,Succasunna,07876
United States,US,New Jersey,NJ,Morris County,Towaco,07082
United States,US,New Jersey,NJ,Morris County,Wharton,07885
United States,US,New Jersey,NJ,Morris County,Whippany,07981
United States,US,New Jersey,NJ,Morris County,Whippany,07999
United States,US,New Jersey,NJ,Ocean County,Barnegat,08005
United States,US,New Jersey,NJ,Ocean County,Bayville,08721
United States,US,New Jersey,NJ,Ocean County,Beach Haven,08008
United States,US,New Jersey,NJ,Ocean County,Beachwood,08722
United States,US,New Jersey,NJ,Ocean County,Brick,08723
United States,US,New Jersey,NJ,Ocean County,Brick,08724
United States,US,New Jersey,NJ,Ocean County,Forked River,08731
United States,US,New Jersey,NJ,Ocean County,Jackson,08527
United States,US,New Jersey,NJ,Ocean County,Lakehurst,08733
United States,US,New Jersey,NJ,Ocean County,Lakewood,08701
United States,US,New Jersey,NJ,Ocean County,Lanoka Harbor,08734
United States,US,New Jersey,NJ,Ocean County,Lavallette,08735
United States,US,New Jersey,NJ,Ocean County,Manahawkin,08050
United States,US,New Jersey,NJ,Ocean County,Manchester Township,08759
United States,US,New Jersey,NJ,Ocean County,Mantoloking,08738
United States,US,New Jersey,NJ,Ocean County,New Egypt,08533
United States,US,New Jersey,NJ,Ocean County,Pine Beach,08741
United States,US,New Jersey,NJ,Ocean County,Point Pleasant Beach,08742
United States,US,New Jersey,NJ,Ocean County,Seaside Heights,08751
United States,US,New Jersey,NJ,Ocean County,Seaside Park,08752
United States,US,New Jersey,NJ,Ocean County,Toms River,08753
United States,US,New Jersey,NJ,Ocean County,Toms River,08755
United States,US,New Jersey,NJ,Ocean County,Toms River,08757
United States,US,New Jersey,NJ,Ocean County,Tuckerton,08087
United States,US,New Jersey,NJ,Ocean County,Waretown,08758
United States,US,New Jersey,NJ,Ocean County,West Creek,08092
United States,US,New Jersey,NJ,Passaic County,Bloomingdale,07403
United States,US,New Jersey,NJ,Passaic County,Clifton,07011
United States,US,New Jersey,NJ,Passaic County,Clifton,07012
United States,US,New Jersey,NJ,Passaic County,Clifton,07013
United States,US,New Jersey,NJ,Passaic County,Clifton,07014
United States,US,New Jersey,NJ,Passaic County,Haledon,07508
United States,US,New Jersey,NJ,Passaic County,Haskell,07420
United States,US,New Jersey,NJ,Passaic County,Hawthorne,07506
United States,US,New Jersey,NJ,Passaic County,Hewitt,07421
United States,US,New Jersey,NJ,Passaic County,Little Falls,07424
United States,US,New Jersey,NJ,Passaic County,Passaic,07055
United States,US,New Jersey,NJ,Passaic County,Paterson,07501
United States,US,New Jersey,NJ,Passaic County,Paterson,07502
United States,US,New Jersey,NJ,Passaic County,Paterson,07503
United States,US,New Jersey,NJ,Passaic County,Paterson,07504
United States,US,New Jersey,NJ,Passaic County,Paterson,07505
United States,US,New Jersey,NJ,Passaic County,Paterson,07510
United States,US,New Jersey,NJ,Passaic County,Paterson,07513
United States,US,New Jersey,NJ,Passaic County,Paterson,07514
United States,US,New Jersey,NJ,Passaic County,Paterson,07522
United States,US,New Jersey,NJ,Passaic County,Paterson,07524
United States,US,New Jersey,NJ,Passaic County,Pompton Lakes,07442
United States,US,New Jersey,NJ,Passaic County,Ringwood,07456
United States,US,New Jersey,NJ,Passaic County,Totowa,07512
United States,US,New Jersey,NJ,Passaic County,Wanaque,07465
United States,US,New Jersey,NJ,Passaic County,Wayne,07470
United States,US,New Jersey,NJ,Passaic County,West Milford,07480
United States,US,New Jersey,NJ,Salem County,Elmer,08318
United States,US,New Jersey,NJ,Salem County,Pedricktown,08067
United States,US,New Jersey,NJ,Salem County,Penns Grove,08069
United States,US,New Jersey,NJ,Salem County,Pennsville,08070
United States,US,New Jersey,NJ,Salem County,Salem,08079
United States,US,New Jersey,NJ,Salem County,Woodstown,08098
United States,US,New Jersey,NJ,Somerset County,Basking Ridge,07920
United States,US,New Jersey,NJ,Somerset County,Bedminster,07921
United States,US,New Jersey,NJ,Somerset County,Belle Mead,08502
United States,US,New Jersey,NJ,Somerset County,Bernardsville,07924
United States,US,New Jersey,NJ,Somerset County,Bound Brook,08805
United States,US,New Jersey,NJ,Somerset County,Bridgewater,08807
United States,US,New Jersey,NJ,Somerset County,Dunellen,08812
United States,US,New Jersey,NJ,Somerset County,Far Hills,07931
United States,US,New Jersey,NJ,Somerset County,Franklin Park,08823
United States,US,New Jersey,NJ,Somerset County,Gladstone,07934
United States,US,New Jersey,NJ,Somerset County,Hillsborough,08844
United States,US,New Jersey,NJ,Somerset County,Kingston,08528
United States,US,New Jersey,NJ,Somerset County,Lyons,07939
United States,US,New Jersey,NJ,Somerset County,Manville,08835
United States,US,New Jersey,NJ,Somerset County,Martinsville,08836
United States,US,New Jersey,NJ,Somerset County,Neshanic Station,08853
United States,US,New Jersey,NJ,Somerset County,Raritan,08869
United States,US,New Jersey,NJ,Somerset County,Rocky Hill,08553
United States,US,New Jersey,NJ,Somerset County,Skillman,08558
United States,US,New Jersey,NJ,Somerset County,Somerset,08873
United States,US,New Jersey,NJ,Somerset County,Somerville,08876
United States,US,New Jersey,NJ,Somerset County,South Bound Brook,08880
United States,US,New Jersey,NJ,Somerset County,Warren,07059
United States,US,New Jersey,NJ,Somerset County,Watchung,07069
United States,US,New Jersey,NJ,Sussex County,Andover,07821
United States,US,New Jersey,NJ,Sussex County,Augusta,07822
United States,US,New Jersey,NJ,Sussex County,Branchville,07826
United States,US,New Jersey,NJ,Sussex County,Franklin,07416
United States,US,New Jersey,NJ,Sussex County,Glenwood,07418
United States,US,New Jersey,NJ,Sussex County,Hamburg,07419
United States,US,New Jersey,NJ,Sussex County,Highland Lakes,07422
United States,US,New Jersey,NJ,Sussex County,Hopatcong,07843
United States,US,New Jersey,NJ,Sussex County,Lafayette,07848
United States,US,New Jersey,NJ,Sussex County,Layton,07851
United States,US,New Jersey,NJ,Sussex County,Montague,07827
United States,US,New Jersey,NJ,Sussex County,Newton,07860
United States,US,New Jersey,NJ,Sussex County,Ogdensburg,07439
United States,US,New Jersey,NJ,Sussex County,Sparta,07871
United States,US,New Jersey,NJ,Sussex County,Stanhope,07874
United States,US,New Jersey,NJ,Sussex County,Stockholm,07460
United States,US,New Jersey,NJ,Sussex County,Sussex,07461
United States,US,New Jersey,NJ,Sussex County,Vernon,07462
United States,US,New Jersey,NJ,Sussex County,Wallpack Center,07881
United States,US,New Jersey,NJ,Union County,Berkeley Heights,07922
United States,US,New Jersey,NJ,Union County,Clark,07066
United States,US,New Jersey,NJ,Union County,Cranford,07016
United States,US,New Jersey,NJ,Union County,Elizabeth,07201
United States,US,New Jersey,NJ,Union County,Elizabeth,07202
United States,US,New Jersey,NJ,Union County,Elizabeth,07208
United States,US,New Jersey,NJ,Union County,Elizabethport,07206
United States,US,New Jersey,NJ,Union County,Fanwood,07023
United States,US,New Jersey,NJ,Union County,Garwood,07027
United States,US,New Jersey,NJ,Union County,Hillside,07205
United States,US,New Jersey,NJ,Union County,Kenilworth,07033
United States,US,New Jersey,NJ,Union County,Linden,07036
United States,US,New Jersey,NJ,Union County,Mountainside,07092
United States,US,New Jersey,NJ,Union County,New Providence,07974
United States,US,New Jersey,NJ,Union County,Plainfield,07060
United States,US,New Jersey,NJ,Union County,Plainfield,07062
United States,US,New Jersey,NJ,Union County,Plainfield,07063
United States,US,New Jersey,NJ,Union County,Rahway,07065
United States,US,New Jersey,NJ,Union County,Roselle,07203
United States,US,New Jersey,NJ,Union County,Roselle Park,07204
United States,US,New Jersey,NJ,Union County,Scotch Plains,07076
United States,US,New Jersey,NJ,Union County,Springfield,07081
United States,US,New Jersey,NJ,Union County,Summit,07901
United States,US,New Jersey,NJ,Union County,Union,07083
United States,US,New Jersey,NJ,Union County,Vauxhall,07088
United States,US,New Jersey,NJ,Union County,Westfield,07090
United States,US,New Jersey,NJ,Warren County,Belvidere,07823
United States,US,New Jersey,NJ,Warren County,Blairstown,07825
United States,US,New Jersey,NJ,Warren County,Columbia,07832
United States,US,New Jersey,NJ,Warren County,Great Meadows,07838
United States,US,New Jersey,NJ,Warren County,Hackettstown,07840
United States,US,New Jersey,NJ,Warren County,Oxford,07863
United States,US,New Jersey,NJ,Warren County,Phillipsburg,08865
United States,US,New Jersey,NJ,Warren County,Stewartsville,08886
United States,US,New Jersey,NJ,Warren County,Washington,07882
